2017-07-24 18:48:04,953 [25] ERROR BCTrackingServices.BCTrackingLogger [(null)] - Error in InsertUpdateBankCorresponds: Cannot insert the value NULL into column 'BankCorresponenceId', table 'BCDB.dbo.BCCertifications'; column does not allow nulls. INSERT fails.
The statement has been terminated.<br/>   at BCTrackingDAL.DBHelper.ExecProcScalar(String procName, SpParamCollection spParams, SqlConnection conn) in d:\project\bctracking-prod\BCTrackingDAL\DBHelper_US.cs:line 282
   at BCTrackingDAL.DBHelper.ExecProcScalar(String procName, SpParamCollection spParams) in d:\project\bctracking-prod\BCTrackingDAL\DBHelper_US.cs:line 304
   at BCTrackingDAL.SQLDataProvider.InsertUpdateBCforExcelCertification(BCCertifications cer, Int32 userId, String mode) in d:\project\bctracking-prod\BCTrackingDAL\SQLDataProvider.cs:line 3168
2017-07-24 18:48:05,061 [25] ERROR BCTrackingServices.BCTrackingLogger [(null)] - Error in BCTrackingBL.InsertUpdateBC: Cannot insert the value NULL into column 'BankCorresponenceId', table 'BCDB.dbo.BCCertifications'; column does not allow nulls. INSERT fails.
The statement has been terminated.<br/>   at BCTrackingDAL.SQLDataProvider.InsertUpdateBCforExcelCertification(BCCertifications cer, Int32 userId, String mode) in d:\project\bctracking-prod\BCTrackingDAL\SQLDataProvider.cs:line 3177
   at BCTrackingBL.BankCorrespondentBL.InsertUpdateBCforExcelCertification(BCCertifications bc, Int32 userId, String mode) in d:\project\bctracking-prod\BCTrackingBL\BankCorrespondentBL.cs:line 100
2017-07-24 18:48:05,170 [25] ERROR BCTrackingServices.BCTrackingLogger [(null)] - Error in InsertUpdateBankCorresponds: Cannot insert the value NULL into column 'BankCorresponenceId', table 'BCDB.dbo.BCCertifications'; column does not allow nulls. INSERT fails.
The statement has been terminated.<br/>   at BCTrackingDAL.DBHelper.ExecProcScalar(String procName, SpParamCollection spParams, SqlConnection conn) in d:\project\bctracking-prod\BCTrackingDAL\DBHelper_US.cs:line 282
   at BCTrackingDAL.DBHelper.ExecProcScalar(String procName, SpParamCollection spParams) in d:\project\bctracking-prod\BCTrackingDAL\DBHelper_US.cs:line 304
   at BCTrackingDAL.SQLDataProvider.InsertUpdateBCforExcelCertification(BCCertifications cer, Int32 userId, String mode) in d:\project\bctracking-prod\BCTrackingDAL\SQLDataProvider.cs:line 3168
2017-07-24 18:48:05,196 [25] ERROR BCTrackingServices.BCTrackingLogger [(null)] - Error in BCTrackingBL.InsertUpdateBC: Cannot insert the value NULL into column 'BankCorresponenceId', table 'BCDB.dbo.BCCertifications'; column does not allow nulls. INSERT fails.
The statement has been terminated.<br/>   at BCTrackingDAL.SQLDataProvider.InsertUpdateBCforExcelCertification(BCCertifications cer, Int32 userId, String mode) in d:\project\bctracking-prod\BCTrackingDAL\SQLDataProvider.cs:line 3177
   at BCTrackingBL.BankCorrespondentBL.InsertUpdateBCforExcelCertification(BCCertifications bc, Int32 userId, String mode) in d:\project\bctracking-prod\BCTrackingBL\BankCorrespondentBL.cs:line 100
2017-07-24 18:48:05,370 [25] ERROR BCTrackingServices.BCTrackingLogger [(null)] - Error in InsertUpdateBankCorresponds: Cannot insert the value NULL into column 'BankCorrespondenceId', table 'BCDB.dbo.PreviousExperience'; column does not allow nulls. INSERT fails.
The statement has been terminated.<br/>   at BCTrackingDAL.DBHelper.ExecProcScalar(String procName, SpParamCollection spParams, SqlConnection conn) in d:\project\bctracking-prod\BCTrackingDAL\DBHelper_US.cs:line 282
   at BCTrackingDAL.DBHelper.ExecProcScalar(String procName, SpParamCollection spParams) in d:\project\bctracking-prod\BCTrackingDAL\DBHelper_US.cs:line 304
   at BCTrackingDAL.SQLDataProvider.InsertUpdateBCforExcelPreviousExperiene(PreviousExperiene exp, Int32 userId, String mode) in d:\project\bctracking-prod\BCTrackingDAL\SQLDataProvider.cs:line 3203
2017-07-24 18:48:05,392 [25] ERROR BCTrackingServices.BCTrackingLogger [(null)] - Error in BCTrackingBL.InsertUpdateBC: Cannot insert the value NULL into column 'BankCorrespondenceId', table 'BCDB.dbo.PreviousExperience'; column does not allow nulls. INSERT fails.
The statement has been terminated.<br/>   at BCTrackingDAL.SQLDataProvider.InsertUpdateBCforExcelPreviousExperiene(PreviousExperiene exp, Int32 userId, String mode) in d:\project\bctracking-prod\BCTrackingDAL\SQLDataProvider.cs:line 3212
   at BCTrackingBL.BankCorrespondentBL.InsertUpdateBCforExcelPreviousExperiene(PreviousExperiene bc, Int32 userId, String mode) in d:\project\bctracking-prod\BCTrackingBL\BankCorrespondentBL.cs:line 119
2017-07-24 18:48:05,520 [25] ERROR BCTrackingServices.BCTrackingLogger [(null)] - Error in InsertUpdateBankCorresponds: Cannot insert the value NULL into column 'BCId', table 'BCDB.dbo.OperationAreas'; column does not allow nulls. INSERT fails.
The statement has been terminated.<br/>   at BCTrackingDAL.DBHelper.ExecProcScalar(String procName, SpParamCollection spParams, SqlConnection conn) in d:\project\bctracking-prod\BCTrackingDAL\DBHelper_US.cs:line 282
   at BCTrackingDAL.DBHelper.ExecProcScalar(String procName, SpParamCollection spParams) in d:\project\bctracking-prod\BCTrackingDAL\DBHelper_US.cs:line 304
   at BCTrackingDAL.SQLDataProvider.InsertUpdateBCforExcelOperationalAreas(OperationalAreas ar, Int32 userId, String mode) in d:\project\bctracking-prod\BCTrackingDAL\SQLDataProvider.cs:line 3235
2017-07-24 18:48:05,546 [25] ERROR BCTrackingServices.BCTrackingLogger [(null)] - Error in BCTrackingBL.InsertUpdateBC: Cannot insert the value NULL into column 'BCId', table 'BCDB.dbo.OperationAreas'; column does not allow nulls. INSERT fails.
The statement has been terminated.<br/>   at BCTrackingDAL.SQLDataProvider.InsertUpdateBCforExcelOperationalAreas(OperationalAreas ar, Int32 userId, String mode) in d:\project\bctracking-prod\BCTrackingDAL\SQLDataProvider.cs:line 3244
   at BCTrackingBL.BankCorrespondentBL.InsertUpdateBCforExcelOperationalAreas(OperationalAreas bc, Int32 userId, String mode) in d:\project\bctracking-prod\BCTrackingBL\BankCorrespondentBL.cs:line 137
2017-07-24 18:48:05,720 [25] ERROR BCTrackingServices.BCTrackingLogger [(null)] - Error in InsertUpdateBankCorresponds: Cannot insert the value NULL into column 'BCId', table 'BCDB.dbo.BCDevices'; column does not allow nulls. INSERT fails.
The statement has been terminated.<br/>   at BCTrackingDAL.DBHelper.ExecProcScalar(String procName, SpParamCollection spParams, SqlConnection conn) in d:\project\bctracking-prod\BCTrackingDAL\DBHelper_US.cs:line 282
   at BCTrackingDAL.DBHelper.ExecProcScalar(String procName, SpParamCollection spParams) in d:\project\bctracking-prod\BCTrackingDAL\DBHelper_US.cs:line 304
   at BCTrackingDAL.SQLDataProvider.InsertUpdateBCforExcelBCDevices(BCDevices ar, Int32 userId, String mode) in d:\project\bctracking-prod\BCTrackingDAL\SQLDataProvider.cs:line 3268
2017-07-24 18:48:05,742 [25] ERROR BCTrackingServices.BCTrackingLogger [(null)] - Error in BCTrackingBL.InsertUpdateBC: Cannot insert the value NULL into column 'BCId', table 'BCDB.dbo.BCDevices'; column does not allow nulls. INSERT fails.
The statement has been terminated.<br/>   at BCTrackingDAL.SQLDataProvider.InsertUpdateBCforExcelBCDevices(BCDevices ar, Int32 userId, String mode) in d:\project\bctracking-prod\BCTrackingDAL\SQLDataProvider.cs:line 3277
   at BCTrackingBL.BankCorrespondentBL.InsertUpdateBCforExcelBCDevices(BCDevices bc, Int32 userId, String mode) in d:\project\bctracking-prod\BCTrackingBL\BankCorrespondentBL.cs:line 156
2017-07-24 18:48:05,886 [25] ERROR BCTrackingServices.BCTrackingLogger [(null)] - Error in InsertUpdateBankCorresponds: Cannot insert the value NULL into column 'BCId', table 'BCDB.dbo.ConnectivityDetails'; column does not allow nulls. INSERT fails.
The statement has been terminated.<br/>   at BCTrackingDAL.DBHelper.ExecProcScalar(String procName, SpParamCollection spParams, SqlConnection conn) in d:\project\bctracking-prod\BCTrackingDAL\DBHelper_US.cs:line 282
   at BCTrackingDAL.DBHelper.ExecProcScalar(String procName, SpParamCollection spParams) in d:\project\bctracking-prod\BCTrackingDAL\DBHelper_US.cs:line 304
   at BCTrackingDAL.SQLDataProvider.InsertUpdateBCforExcelConnectivityDetails(ConnectivityDetails ar, Int32 userId, String mode) in d:\project\bctracking-prod\BCTrackingDAL\SQLDataProvider.cs:line 3301
2017-07-24 18:48:05,909 [25] ERROR BCTrackingServices.BCTrackingLogger [(null)] - Error in BCTrackingBL.InsertUpdateBC: Cannot insert the value NULL into column 'BCId', table 'BCDB.dbo.ConnectivityDetails'; column does not allow nulls. INSERT fails.
The statement has been terminated.<br/>   at BCTrackingDAL.SQLDataProvider.InsertUpdateBCforExcelConnectivityDetails(ConnectivityDetails ar, Int32 userId, String mode) in d:\project\bctracking-prod\BCTrackingDAL\SQLDataProvider.cs:line 3310
   at BCTrackingBL.BankCorrespondentBL.InsertUpdateBCforExcelConnectivityDetails(ConnectivityDetails bc, Int32 userId, String mode) in d:\project\bctracking-prod\BCTrackingBL\BankCorrespondentBL.cs:line 174
2017-07-24 19:01:10,170 [7] ERROR BCTrackingServices.BCTrackingLogger [(null)] - Error in InsertUpdateBankCorresponds: Cannot insert the value NULL into column 'BankCorresponenceId', table 'BCDB.dbo.BCCertifications'; column does not allow nulls. INSERT fails.
The statement has been terminated.<br/>   at BCTrackingDAL.DBHelper.ExecProcScalar(String procName, SpParamCollection spParams, SqlConnection conn) in d:\project\bctracking-prod\BCTrackingDAL\DBHelper_US.cs:line 282
   at BCTrackingDAL.DBHelper.ExecProcScalar(String procName, SpParamCollection spParams) in d:\project\bctracking-prod\BCTrackingDAL\DBHelper_US.cs:line 304
   at BCTrackingDAL.SQLDataProvider.InsertUpdateBCforExcelCertification(BCCertifications cer, Int32 userId, String mode) in d:\project\bctracking-prod\BCTrackingDAL\SQLDataProvider.cs:line 3168
2017-07-24 19:01:10,562 [7] ERROR BCTrackingServices.BCTrackingLogger [(null)] - Error in BCTrackingBL.InsertUpdateBC: Cannot insert the value NULL into column 'BankCorresponenceId', table 'BCDB.dbo.BCCertifications'; column does not allow nulls. INSERT fails.
The statement has been terminated.<br/>   at BCTrackingDAL.SQLDataProvider.InsertUpdateBCforExcelCertification(BCCertifications cer, Int32 userId, String mode) in d:\project\bctracking-prod\BCTrackingDAL\SQLDataProvider.cs:line 3177
   at BCTrackingBL.BankCorrespondentBL.InsertUpdateBCforExcelCertification(BCCertifications bc, Int32 userId, String mode) in d:\project\bctracking-prod\BCTrackingBL\BankCorrespondentBL.cs:line 100
2017-07-24 19:01:10,690 [7] ERROR BCTrackingServices.BCTrackingLogger [(null)] - Error in InsertUpdateBankCorresponds: Cannot insert the value NULL into column 'BankCorresponenceId', table 'BCDB.dbo.BCCertifications'; column does not allow nulls. INSERT fails.
The statement has been terminated.<br/>   at BCTrackingDAL.DBHelper.ExecProcScalar(String procName, SpParamCollection spParams, SqlConnection conn) in d:\project\bctracking-prod\BCTrackingDAL\DBHelper_US.cs:line 282
   at BCTrackingDAL.DBHelper.ExecProcScalar(String procName, SpParamCollection spParams) in d:\project\bctracking-prod\BCTrackingDAL\DBHelper_US.cs:line 304
   at BCTrackingDAL.SQLDataProvider.InsertUpdateBCforExcelCertification(BCCertifications cer, Int32 userId, String mode) in d:\project\bctracking-prod\BCTrackingDAL\SQLDataProvider.cs:line 3168
2017-07-24 19:01:10,708 [7] ERROR BCTrackingServices.BCTrackingLogger [(null)] - Error in BCTrackingBL.InsertUpdateBC: Cannot insert the value NULL into column 'BankCorresponenceId', table 'BCDB.dbo.BCCertifications'; column does not allow nulls. INSERT fails.
The statement has been terminated.<br/>   at BCTrackingDAL.SQLDataProvider.InsertUpdateBCforExcelCertification(BCCertifications cer, Int32 userId, String mode) in d:\project\bctracking-prod\BCTrackingDAL\SQLDataProvider.cs:line 3177
   at BCTrackingBL.BankCorrespondentBL.InsertUpdateBCforExcelCertification(BCCertifications bc, Int32 userId, String mode) in d:\project\bctracking-prod\BCTrackingBL\BankCorrespondentBL.cs:line 100
2017-07-24 19:01:10,813 [7] ERROR BCTrackingServices.BCTrackingLogger [(null)] - Error in InsertUpdateBankCorresponds: Cannot insert the value NULL into column 'BankCorrespondenceId', table 'BCDB.dbo.PreviousExperience'; column does not allow nulls. INSERT fails.
The statement has been terminated.<br/>   at BCTrackingDAL.DBHelper.ExecProcScalar(String procName, SpParamCollection spParams, SqlConnection conn) in d:\project\bctracking-prod\BCTrackingDAL\DBHelper_US.cs:line 282
   at BCTrackingDAL.DBHelper.ExecProcScalar(String procName, SpParamCollection spParams) in d:\project\bctracking-prod\BCTrackingDAL\DBHelper_US.cs:line 304
   at BCTrackingDAL.SQLDataProvider.InsertUpdateBCforExcelPreviousExperiene(PreviousExperiene exp, Int32 userId, String mode) in d:\project\bctracking-prod\BCTrackingDAL\SQLDataProvider.cs:line 3203
2017-07-24 19:01:10,834 [7] ERROR BCTrackingServices.BCTrackingLogger [(null)] - Error in BCTrackingBL.InsertUpdateBC: Cannot insert the value NULL into column 'BankCorrespondenceId', table 'BCDB.dbo.PreviousExperience'; column does not allow nulls. INSERT fails.
The statement has been terminated.<br/>   at BCTrackingDAL.SQLDataProvider.InsertUpdateBCforExcelPreviousExperiene(PreviousExperiene exp, Int32 userId, String mode) in d:\project\bctracking-prod\BCTrackingDAL\SQLDataProvider.cs:line 3212
   at BCTrackingBL.BankCorrespondentBL.InsertUpdateBCforExcelPreviousExperiene(PreviousExperiene bc, Int32 userId, String mode) in d:\project\bctracking-prod\BCTrackingBL\BankCorrespondentBL.cs:line 119
2017-07-24 19:01:10,945 [7] ERROR BCTrackingServices.BCTrackingLogger [(null)] - Error in InsertUpdateBankCorresponds: Cannot insert the value NULL into column 'BCId', table 'BCDB.dbo.OperationAreas'; column does not allow nulls. INSERT fails.
The statement has been terminated.<br/>   at BCTrackingDAL.DBHelper.ExecProcScalar(String procName, SpParamCollection spParams, SqlConnection conn) in d:\project\bctracking-prod\BCTrackingDAL\DBHelper_US.cs:line 282
   at BCTrackingDAL.DBHelper.ExecProcScalar(String procName, SpParamCollection spParams) in d:\project\bctracking-prod\BCTrackingDAL\DBHelper_US.cs:line 304
   at BCTrackingDAL.SQLDataProvider.InsertUpdateBCforExcelOperationalAreas(OperationalAreas ar, Int32 userId, String mode) in d:\project\bctracking-prod\BCTrackingDAL\SQLDataProvider.cs:line 3235
2017-07-24 19:01:10,968 [7] ERROR BCTrackingServices.BCTrackingLogger [(null)] - Error in BCTrackingBL.InsertUpdateBC: Cannot insert the value NULL into column 'BCId', table 'BCDB.dbo.OperationAreas'; column does not allow nulls. INSERT fails.
The statement has been terminated.<br/>   at BCTrackingDAL.SQLDataProvider.InsertUpdateBCforExcelOperationalAreas(OperationalAreas ar, Int32 userId, String mode) in d:\project\bctracking-prod\BCTrackingDAL\SQLDataProvider.cs:line 3244
   at BCTrackingBL.BankCorrespondentBL.InsertUpdateBCforExcelOperationalAreas(OperationalAreas bc, Int32 userId, String mode) in d:\project\bctracking-prod\BCTrackingBL\BankCorrespondentBL.cs:line 137
2017-07-24 19:01:11,072 [7] ERROR BCTrackingServices.BCTrackingLogger [(null)] - Error in InsertUpdateBankCorresponds: Cannot insert the value NULL into column 'BCId', table 'BCDB.dbo.BCDevices'; column does not allow nulls. INSERT fails.
The statement has been terminated.<br/>   at BCTrackingDAL.DBHelper.ExecProcScalar(String procName, SpParamCollection spParams, SqlConnection conn) in d:\project\bctracking-prod\BCTrackingDAL\DBHelper_US.cs:line 282
   at BCTrackingDAL.DBHelper.ExecProcScalar(String procName, SpParamCollection spParams) in d:\project\bctracking-prod\BCTrackingDAL\DBHelper_US.cs:line 304
   at BCTrackingDAL.SQLDataProvider.InsertUpdateBCforExcelBCDevices(BCDevices ar, Int32 userId, String mode) in d:\project\bctracking-prod\BCTrackingDAL\SQLDataProvider.cs:line 3268
2017-07-24 19:01:11,092 [7] ERROR BCTrackingServices.BCTrackingLogger [(null)] - Error in BCTrackingBL.InsertUpdateBC: Cannot insert the value NULL into column 'BCId', table 'BCDB.dbo.BCDevices'; column does not allow nulls. INSERT fails.
The statement has been terminated.<br/>   at BCTrackingDAL.SQLDataProvider.InsertUpdateBCforExcelBCDevices(BCDevices ar, Int32 userId, String mode) in d:\project\bctracking-prod\BCTrackingDAL\SQLDataProvider.cs:line 3277
   at BCTrackingBL.BankCorrespondentBL.InsertUpdateBCforExcelBCDevices(BCDevices bc, Int32 userId, String mode) in d:\project\bctracking-prod\BCTrackingBL\BankCorrespondentBL.cs:line 156
2017-07-24 19:01:11,226 [7] ERROR BCTrackingServices.BCTrackingLogger [(null)] - Error in InsertUpdateBankCorresponds: Cannot insert the value NULL into column 'BCId', table 'BCDB.dbo.ConnectivityDetails'; column does not allow nulls. INSERT fails.
The statement has been terminated.<br/>   at BCTrackingDAL.DBHelper.ExecProcScalar(String procName, SpParamCollection spParams, SqlConnection conn) in d:\project\bctracking-prod\BCTrackingDAL\DBHelper_US.cs:line 282
   at BCTrackingDAL.DBHelper.ExecProcScalar(String procName, SpParamCollection spParams) in d:\project\bctracking-prod\BCTrackingDAL\DBHelper_US.cs:line 304
   at BCTrackingDAL.SQLDataProvider.InsertUpdateBCforExcelConnectivityDetails(ConnectivityDetails ar, Int32 userId, String mode) in d:\project\bctracking-prod\BCTrackingDAL\SQLDataProvider.cs:line 3301
2017-07-24 19:01:11,249 [7] ERROR BCTrackingServices.BCTrackingLogger [(null)] - Error in BCTrackingBL.InsertUpdateBC: Cannot insert the value NULL into column 'BCId', table 'BCDB.dbo.ConnectivityDetails'; column does not allow nulls. INSERT fails.
The statement has been terminated.<br/>   at BCTrackingDAL.SQLDataProvider.InsertUpdateBCforExcelConnectivityDetails(ConnectivityDetails ar, Int32 userId, String mode) in d:\project\bctracking-prod\BCTrackingDAL\SQLDataProvider.cs:line 3310
   at BCTrackingBL.BankCorrespondentBL.InsertUpdateBCforExcelConnectivityDetails(ConnectivityDetails bc, Int32 userId, String mode) in d:\project\bctracking-prod\BCTrackingBL\BankCorrespondentBL.cs:line 174
