2017-04-07 15:28:46,706 [8] ERROR BCTrackingServices.BCTrackingLogger [(null)] - Error in BlackListBankCorrespond: Procedure or function 'sp_BlackListBC' expects parameter '@BcId', which was not supplied.<br/>   at BCTrackingDAL.DBHelper.ExecProcScalar(String procName, SpParamCollection spParams, SqlConnection conn) in F:\Projects\BPTL\BCTracking\BCTrackingDAL\DBHelper_US.cs:line 282
   at BCTrackingDAL.DBHelper.ExecProcScalar(String procName, SpParamCollection spParams) in F:\Projects\BPTL\BCTracking\BCTrackingDAL\DBHelper_US.cs:line 304
   at BCTrackingDAL.SQLDataProvider.BlackListBankCorrespond(BankCorrespondence bc, Int32 userId, String mode) in F:\Projects\BPTL\BCTracking\BCTrackingDAL\SQLDataProvider.cs:line 736
2017-04-07 15:38:24,907 [6] ERROR BCTrackingServices.BCTrackingLogger [(null)] - Error in BlackListBankCorrespond: Object reference not set to an instance of an object.<br/>   at BCTrackingDAL.SQLDataProvider.BlackListBankCorrespond(BankCorrespondence bc, Int32 userId, String mode) in F:\Projects\BPTL\BCTracking\BCTrackingDAL\SQLDataProvider.cs:line 737
2017-04-07 15:43:08,229 [6] ERROR BCTrackingServices.BCTrackingLogger [(null)] - Error in BlackListBankCorrespond: Procedure or function sp_BlackListBC has too many arguments specified.<br/>   at BCTrackingDAL.DBHelper.ExecProcScalar(String procName, SpParamCollection spParams, SqlConnection conn) in F:\Projects\BPTL\BCTracking\BCTrackingDAL\DBHelper_US.cs:line 282
   at BCTrackingDAL.DBHelper.ExecProcScalar(String procName, SpParamCollection spParams) in F:\Projects\BPTL\BCTracking\BCTrackingDAL\DBHelper_US.cs:line 304
   at BCTrackingDAL.SQLDataProvider.BlackListBankCorrespond(BankCorrespondence bc, Int32 userId, String mode) in F:\Projects\BPTL\BCTracking\BCTrackingDAL\SQLDataProvider.cs:line 736
